<?xml version="1.0" encoding="utf-8"?>
<svg version="1.1" xmlns="http://www.w3.org/2000/svg" viewBox="-4 0 26 36" xml:space="preserve">
<polygon points="1.8,5 -0.4,31 7.6,12.9 14.1,10.8" fill="#fff"/>
<polygon points="11.6,31 7.6,17.3 14.1,25.9 18.4,25.9" fill="#fff"/>
</svg>